…
``` r
# new_youth_risk_df %>%
#   filter(Subtopic != c("Suicide-Related Behaviors", "Fruit and fruit juices", "Milk", "Obesity and Overweight", "Sleep")) 
```

``` r
new_youth_risk_df %>%
  filter(Subtopic == "Milk") %>%
  group_by(ShortQuestionText) %>%
  mutate(Greater_Risk_Data_Value = round(Greater_Risk_Data_Value, digits = 0)) %>%
  arrange(desc(Greater_Risk_Data_Value))
```

    ## # A tibble: 10,560 × 12
    ## # Groups:   ShortQuestionText [4]
    ##     YEAR Topic             Subtopic ShortQuestionText     Greater_Risk_Data_Va…¹
    ##    <dbl> <chr>             <chr>    <chr>                                  <dbl>
    ##  1  2017 Dietary Behaviors Milk     Milk drinking >= 2 g…                    100
    ##  2  2017 Dietary Behaviors Milk     Milk drinking >= 3 g…                    100
    ##  3  2017 Dietary Behaviors Milk     Milk drinking >= 3 g…                    100
    ##  4  2017 Dietary Behaviors Milk     Milk drinking >= 3 g…                    100
    ##  5  2017 Dietary Behaviors Milk     Milk drinking >= 3 g…                    100
    ##  6  2015 Dietary Behaviors Milk     Milk drinking >= 3 g…                    100
    ##  7  2015 Dietary Behaviors Milk     Milk drinking >= 3 g…                    100
    ##  8  2015 Dietary Behaviors Milk     Milk drinking >= 3 g…                    100
    ##  9  2017 Dietary Behaviors Milk     Milk drinking >= 3 g…                     99
    ## 10  2017 Dietary Behaviors Milk     Milk drinking >= 2 g…                     98
    ## # ℹ 10,550 more rows
    ## # ℹ abbreviated name: ¹​Greater_Risk_Data_Value
    ## # ℹ 7 more variables: Lesser_Risk_Data_Value <dbl>, Sample_Size <dbl>,
    ## #   Sex <chr>, Race <chr>, Grade <chr>, SexualIdentity <chr>,
    ## #   SexOfSexualContacts <chr>

``` r
new_youth_risk_df %>%
  filter(Subtopic == "Milk") %>%
  group_by(ShortQuestionText, Race) %>%
  summarise(Greater_Risk_Data_Value = round(mean(Greater_Risk_Data_Value, na.rm =TRUE), digits = 0)) %>%
  arrange(desc(Greater_Risk_Data_Value)) %>%
  filter(Race != "Total")
```

    ## `summarise()` has grouped output by 'ShortQuestionText'. You can override using
    ## the `.groups` argument.

    ## # A tibble: 28 × 3
    ## # Groups:   ShortQuestionText [4]
    ##    ShortQuestionText          Race                        Greater_Risk_Data_Va…¹
    ##    <chr>                      <chr>                                        <dbl>
    ##  1 Milk drinking >= 3 glasses Asian                                           93
    ##  2 Milk drinking >= 3 glasses Black or African American                       91
    ##  3 Milk drinking >= 3 glasses Multiple Race                                   91
    ##  4 Milk drinking >= 3 glasses White                                           90
    ##  5 Milk drinking >= 3 glasses Hispanic or Latino                              89
    ##  6 Milk drinking >= 3 glasses American Indian or Alaska …                     88
    ##  7 Milk drinking >= 2 glasses Asian                                           81
    ##  8 Milk drinking >= 2 glasses Multiple Race                                   79
    ##  9 Milk drinking >= 2 glasses Black or African American                       78
    ## 10 Milk drinking >= 2 glasses Hispanic or Latino                              78
    ## # ℹ 18 more rows
    ## # ℹ abbreviated name: ¹​Greater_Risk_Data_Value
…
